{"total":2159,"next":"https://data.ademe.fr/data-fair/api/v1/datasets/meg-83tjwtg8dyz4vv7h1dqe/lines?qs=code_postal_ban%3A%2275011%22&q=82+Roquette&q_fields=adresse_ban&size=8&select=numero_dpe%2Cetiquette_dpe%2Cetiquette_ges%2Csurface_habitable_logement%2Cannee_construction%2Cdate_etablissement_dpe%2Cdate_fin_validite_dpe%2Cadresse_brut%2Cadresse_ban%2Ctype_batiment%2Ccode_postal_ban%2Cnom_commune_ban&sort=-_score%2C-date_etablissement_dpe&after=49.833115%2C1717977600000%2C33554521706292%2C303660","results":[{"adresse_brut":"82 RUE DE LA ROQUETTE","adresse_ban":"82 Rue de la Roquette 75011 Paris","nom_commune_ban":"Paris","etiquette_ges":"D","type_batiment":"appartement","numero_dpe":"2675E0079556Y","date_fin_validite_dpe":"2036-01-11","date_etablissement_dpe":"2026-01-12","code_postal_ban":"75011","surface_habitable_logement":38.2,"etiquette_dpe":"D","_score":49.833115},{"adresse_brut":"80/82 Rue de la Roquette","adresse_ban":"82 Rue de la Roquette 75011 Paris","nom_commune_ban":"Paris","etiquette_ges":"C","type_batiment":"appartement","numero_dpe":"2575E1158366P","date_fin_validite_dpe":"2035-04-02","date_etablissement_dpe":"2025-04-03","code_postal_ban":"75011","surface_habitable_logement":23.5,"etiquette_dpe":"D","_score":49.833115},{"adresse_brut":"82 RUE DE LA ROQUETTE","adresse_ban":"82 Rue de la Roquette 75011 Paris","nom_commune_ban":"Paris","etiquette_ges":"C","type_batiment":"appartement","numero_dpe":"2575E0390408T","date_fin_validite_dpe":"2035-02-04","date_etablissement_dpe":"2025-02-05","code_postal_ban":"75011","surface_habitable_logement":25.1,"etiquette_dpe":"C","_score":49.833115},{"adresse_brut":"82 Rue de la Roquette","adresse_ban":"82 Rue de la Roquette 75011 Paris","nom_commune_ban":"Paris","etiquette_ges":"A","type_batiment":"appartement","numero_dpe":"2575E0142112X","date_fin_validite_dpe":"2035-01-14","date_etablissement_dpe":"2025-01-15","code_postal_ban":"75011","surface_habitable_logement":27.7,"etiquette_dpe":"E","_score":49.833115},{"adresse_brut":"80-82 rue de la Roquette","adresse_ban":"82 Rue de la Roquette 75011 Paris","nom_commune_ban":"Paris","etiquette_ges":"D","annee_construction":1978,"type_batiment":"appartement","numero_dpe":"2575E0108350J","date_fin_validite_dpe":"2035-01-12","date_etablissement_dpe":"2025-01-13","code_postal_ban":"75011","surface_habitable_logement":59.7,"etiquette_dpe":"E","_score":49.833115},{"adresse_brut":"80-82 RUE DE LA ROQUETTE","adresse_ban":"82 Rue de la Roquette 75011 Paris","nom_commune_ban":"Paris","etiquette_ges":"C","type_batiment":"appartement","numero_dpe":"2475E4207329J","date_fin_validite_dpe":"2034-11-27","date_etablissement_dpe":"2024-11-28","code_postal_ban":"75011","surface_habitable_logement":46.5,"etiquette_dpe":"D","_score":49.833115},{"adresse_brut":"82 rue de la Roquette","adresse_ban":"82 Rue de la Roquette 75011 Paris","nom_commune_ban":"Paris","etiquette_ges":"E","annee_construction":1979,"type_batiment":"appartement","numero_dpe":"2475E2353680E","date_fin_validite_dpe":"2034-06-27","date_etablissement_dpe":"2024-06-28","code_postal_ban":"75011","surface_habitable_logement":24.7,"etiquette_dpe":"E","_score":49.833115},{"adresse_brut":"82 rue de la roquette","adresse_ban":"82 Rue de la Roquette 75011 Paris","nom_commune_ban":"Paris","etiquette_ges":"F","type_batiment":"appartement","numero_dpe":"2475E2056628C","date_fin_validite_dpe":"2034-06-09","date_etablissement_dpe":"2024-06-10","code_postal_ban":"75011","surface_habitable_logement":27.4,"etiquette_dpe":"F","_score":49.833115}]}